MC1_DataPreparationCodes
…
[1]     0 17411

range(mc1_edges_raw$target) 

[1]     0 17411

3.3 Mapping from node name to edges indexes

id_map <- mc1_nodes_clean %>%
  select(name, id)

id_map

# A tibble: 17,412 × 2
   name                       id
   <chr>                   <int>
 1 Breaking These Chains       0
 2 Carlos Duffy                1
 3 Min Qin                     2
 4 Xiuying Xie                 3
 5 Nautical Mile Records       4
 6 Unshackled Heart            5
 7 Luke Payne                  6
 8 Xiulan Zeng                 7
 9 David Franklin              8
10 Colline-Cascade Studios     9
# ℹ 17,402 more rows

** 3.4 Map source and target to node name**

mc1_edges_clean <- mc1_edges_raw %>%
  left_join(id_map, by = c("source" = "id")) %>%
  rename(from = name) %>%
  left_join(id_map, by = c("target" = "id")) %>%
  rename(to = name)

mc1_edges_clean

# A tibble: 37,854 × 6
   `Edge Type`      source target   key from                  to                
   <chr>             <int>  <int> <int> <chr>                 <chr>             
 1 InterpolatesFrom      0   1841     0 Breaking These Chains Ripples and Whisp…
 2 RecordedBy            0      4     0 Breaking These Chains Nautical Mile Rec…
 3 PerformerOf           1      0     0 Carlos Duffy          Breaking These Ch…
 4 ComposerOf            1  16180     0 Carlos Duffy          Siege of Barcelon…
 5 PerformerOf           2      0     0 Min Qin               Breaking These Ch…
 6 ProducerOf            2  16180     0 Min Qin               Siege of Barcelon…
 7 PerformerOf           3      0     0 Xiuying Xie           Breaking These Ch…
 8 InterpolatesFrom      5   5088     0 Unshackled Heart      Echoes of a Lonel…
 9 InStyleOf             5  14332     0 Unshackled Heart      Amber Twilight    
10 InterpolatesFrom      5  11677     0 Unshackled Heart      Forbidden Embrace 
# ℹ 37,844 more rows

mc1_edges_clean <- mc1_edges_clean %>%  #Drops source and target columns
  select(from, to, `Edge Type`)

mc1_edges_clean

# A tibble: 37,854 × 3
   from                  to                           `Edge Type`     
   <chr>                 <chr>                        <chr>           
 1 Breaking These Chains Ripples and Whispers         InterpolatesFrom
 2 Breaking These Chains Nautical Mile Records        RecordedBy      
 3 Carlos Duffy          Breaking These Chains        PerformerOf     
 4 Carlos Duffy          Siege of Barcelonas Twilight ComposerOf      
 5 Min Qin               Breaking These Chains        PerformerOf     
 6 Min Qin               Siege of Barcelonas Twilight ProducerOf      
 7 Xiuying Xie           Breaking These Chains        PerformerOf     
 8 Unshackled Heart      Echoes of a Lonely Gaze      InterpolatesFrom
 9 Unshackled Heart      Amber Twilight               InStyleOf       
10 Unshackled Heart      Forbidden Embrace            InterpolatesFrom
# ℹ 37,844 more rows
…
# Count and display invalid edge combinations
invalid_edge_summary <- mc1_edges_tagged %>%
  filter(!valid) %>%
  count(`Edge Type`, source_type, target_type, sort = TRUE)

print(invalid_edge_summary)

# A tibble: 33 × 4
   `Edge Type`      source_type  target_type      n
   <chr>            <chr>        <chr>        <int>
 1 LyricistOf       MusicalGroup Song           106
 2 RecordedBy       RecordLabel  Album          102
 3 ProducerOf       MusicalGroup Song           100
 4 ComposerOf       MusicalGroup Song            97
 5 ProducerOf       MusicalGroup Album           31
 6 LyricistOf       MusicalGroup Album           28
 7 ComposerOf       MusicalGroup Album           17
 8 InStyleOf        MusicalGroup MusicalGroup    12
 9 InStyleOf        Person       MusicalGroup    11
10 InterpolatesFrom MusicalGroup MusicalGroup    10
# ℹ 23 more rows
…
