Take-Home Exercise 2
…
[1]     0 17411

range(mc1_edges_raw$target) 

[1]     0 17411

3.3 Mapping from node name to edges indexes

Name is not an unique identifier.

mc1_nodes_clean %>%
  count(name) %>%
  filter(n > 1)

# A tibble: 1,611 × 2
   name                 n
   <chr>            <int>
 1 Agata Records        2
 2 Ancestral Echoes     2
 3 Angela Thompson      2
 4 Anthony Davis        2
 5 Anthony Smith        2
 6 Asuka Takahashi      3
 7 Brandon Wilson       2
 8 Brian Gonzalez       2
 9 Bryan Garcia         2
10 Bryan Smith          3
# ℹ 1,601 more rows

id_map <- mc1_nodes_clean %>%
  select(id, name)

id_map

# A tibble: 17,412 × 2
      id name                   
   <int> <chr>                  
 1     0 Breaking These Chains  
 2     1 Carlos Duffy           
 3     2 Min Qin                
 4     3 Xiuying Xie            
 5     4 Nautical Mile Records  
 6     5 Unshackled Heart       
 7     6 Luke Payne             
 8     7 Xiulan Zeng            
 9     8 David Franklin         
10     9 Colline-Cascade Studios
# ℹ 17,402 more rows
…
# Count and display invalid edge combinations
invalid_edge_summary <- mc1_edges_tagged %>%
  filter(!valid) %>%
  count(`Edge Type`, source_type, target_type, sort = TRUE)

print(invalid_edge_summary)

# A tibble: 33 × 4
   `Edge Type`      source_type  target_type      n
   <chr>            <chr>        <chr>        <int>
 1 LyricistOf       MusicalGroup Song           106
 2 RecordedBy       RecordLabel  Album          102
 3 ProducerOf       MusicalGroup Song           100
 4 ComposerOf       MusicalGroup Song            97
 5 ProducerOf       MusicalGroup Album           31
 6 LyricistOf       MusicalGroup Album           28
 7 ComposerOf       MusicalGroup Album           17
 8 InStyleOf        MusicalGroup MusicalGroup    12
 9 InStyleOf        Person       MusicalGroup    11
10 InterpolatesFrom MusicalGroup MusicalGroup    10
# ℹ 23 more rows
…
# Count top contributors who influenced Sailor
influencer_people %>%
  count(name, sort = TRUE)

# A tibble: 93 × 2
   name                 n
   <chr>            <int>
 1 Joshua Taylor        3
 2 Shannon Harvey       3
 3 Urszula Stochmal     3
 4 Debra Graham         2
 5 Gang Shao            2
 6 Igor Dyś             2
 7 Jeremiah Love        2
 8 Jing Kang            2
 9 Lei Fu               2
10 Lori Massey          2
# ℹ 83 more rows
…
  sailor_collaborators_roles

# A tibble: 51 × 4
   from_id name                node_type    `Edge Type`
   <chr>   <chr>               <chr>        <chr>      
 1 17227   Aiden Harper        Person       LyricistOf 
 2 17041   Arlo Sterling       Person       LyricistOf 
 3 17190   Astrid Nørgaard     Person       ComposerOf 
 4 17349   Beatrice Albright   Person       LyricistOf 
 5 17349   Beatrice Albright   Person       PerformerOf
 6 17045   Cassian Rae         Person       ComposerOf 
 7 17296   Coralia Bellweather Person       ComposerOf 
 8 16996   Crimson Carriage    MusicalGroup PerformerOf
 9 17355   Daniel OConnell     Person       ComposerOf 
10 17355   Daniel OConnell     Person       PerformerOf
# ℹ 41 more rows
…
sailor_collaborator_role_frequency <- mc1_edges_clean %>%
  filter(
    to_id %in% sailor_works,
    `Edge Type` %in% c("PerformerOf", "ComposerOf", "ProducerOf", "LyricistOf"),
    from_id != sailor_id
  ) %>%
  left_join(
    mc1_nodes_clean %>% select(id, name),
    by = c("from_id" = "id")
  ) %>%
  count(name, `Edge Type`, sort = TRUE)  

sailor_collaborator_role_frequency

# A tibble: 51 × 3
   name                     `Edge Type`     n
   <chr>                    <chr>       <int>
 1 "Maya Jensen"            ComposerOf      4
 2 "Arlo Sterling"          LyricistOf      3
 3 "Cassian Rae"            ComposerOf      3
 4 "Elara May"              ComposerOf      3
 5 "Ivy Echos"              PerformerOf     3
 6 "Jade Thompson"          ComposerOf      3
 7 "Lila \"Lilly\" Hartman" ComposerOf      3
 8 "Lyra Blaze"             ComposerOf      3
 9 "Orion Cruz"             ComposerOf      3
10 "Sophie Ramirez"         LyricistOf      3
# ℹ 41 more rows
…
